<?xml version="1.0" encoding="utf-8"?>
<!-- Generator: Adobe Illustrator 19.0.0, SVG Export Plug-In . SVG Version: 6.00 Build 0)  -->
<svg version="1.1" id="Layer_1" xmlns="http://www.w3.org/2000/svg" xmlns:xlink="http://www.w3.org/1999/xlink" x="0px" y="0px"
	 viewBox="0 0 62.4 41.1" style="enable-background:new 0 0 62.4 41.1;" xml:space="preserve">
<style type="text/css">
	.st0{fill:#36B094;}
	.st1{fill:#FFFFFF;}
</style>
<g id="XMLID_158_">
	<rect id="XMLID_164_" x="0" y="0" class="st0" width="62.4" height="41.1"/>
	<g id="XMLID_159_">
		<path id="XMLID_160_" class="st1" d="M48.4,22.8c-1.1-1.4-2.5-2.3-4.2-2.7c0.5-0.8,0.8-1.7,0.8-2.7c0-1.4-0.5-2.6-1.5-3.6
			c-1-1-2.2-1.5-3.6-1.5c-1.2,0-2.3,0.4-3.3,1.2c-0.8-1.9-2-3.4-3.7-4.5c-1.7-1.1-3.6-1.7-5.6-1.7c-2.8,0-5.1,1-7.1,2.9
			c-2,2-2.9,4.3-2.9,7.1c0,0.2,0,0.5,0,0.8c-1.5,0.7-2.8,1.8-3.7,3.2c-0.9,1.4-1.4,3-1.4,4.7c0,2.4,0.9,4.5,2.6,6.2
			c1.7,1.7,3.8,2.6,6.2,2.6h21.4c2.1,0,3.9-0.7,5.3-2.2c1.5-1.5,2.2-3.3,2.2-5.3C50,25.8,49.5,24.2,48.4,22.8L48.4,22.8z M37.3,23.6
			l-6.9,6.9c-0.1,0.1-0.5,0.4-0.5,0.4s-0.3-0.3-0.5-0.4l-6.9-6.9c-0.1-0.1-1-1.1-1-1.1s1.3,0,1.4,0h4.4v-6.9c0-0.2,0-0.6,0-0.6
			s0.5,0,0.6,0h3.8c0.2,0,0.6,0,0.6,0s0,0.5,0,0.6v6.9h4.4c0.2,0,1.6,0,1.6,0S37.4,23.4,37.3,23.6L37.3,23.6z M37.3,23.6"/>
	</g>
</g>
</svg>
