<?xml version="1.0" encoding="utf-8"?>
<!-- Generator: Adobe Illustrator 19.0.0, SVG Export Plug-In . SVG Version: 6.00 Build 0)  -->
<svg version="1.1" id="Layer_1" xmlns="http://www.w3.org/2000/svg" xmlns:xlink="http://www.w3.org/1999/xlink" x="0px" y="0px"
	 viewBox="0 0 62.4 41.1" style="enable-background:new 0 0 62.4 41.1;" xml:space="preserve">
<style type="text/css">
	.st0{fill:#36B094;}
	.st1{fill:#FFFFFF;}
	.st2{fill:#36B094;stroke:#FFFFFF;stroke-width:2;stroke-miterlimit:10;}
</style>
<g id="XMLID_191_">
	<rect id="XMLID_197_" x="0" y="0" class="st0" width="62.4" height="41.1"/>
	<g id="XMLID_193_">
		<path id="XMLID_194_" class="st1" d="M48.4,23.4c-1.1-1.4-2.5-2.3-4.2-2.7C44.8,19.9,45,19,45,18c0-1.4-0.5-2.6-1.5-3.6
			c-1-1-2.2-1.5-3.6-1.5c-1.2,0-2.3,0.4-3.3,1.2c-0.8-1.9-2-3.4-3.7-4.5c-1.7-1.1-3.6-1.7-5.6-1.7c-2.8,0-5.1,1-7.1,2.9
			c-2,2-2.9,4.3-2.9,7.1c0,0.2,0,0.5,0,0.8c-1.5,0.7-2.8,1.8-3.7,3.2c-0.9,1.4-1.4,3-1.4,4.7c0,2.4,0.9,4.5,2.6,6.2
			c1.7,1.7,3.8,2.6,6.2,2.6h21.4c2.1,0,3.9-0.7,5.3-2.2c1.5-1.5,2.2-3.3,2.2-5.3C50.1,26.3,49.5,24.7,48.4,23.4L48.4,23.4z
			 M37.3,24.1"/>
	</g>
	<path id="XMLID_192_" class="st2" d="M11.8,11.9L18.7,5c0.1-0.1,0.5-0.4,0.5-0.4s0.3,0.3,0.5,0.4l6.9,6.9c0.1,0.1,1,1.1,1,1.1
		s-1.3,0-1.4,0h-4.4v6.9c0,0.2,0,0.6,0,0.6s-0.5,0-0.6,0h-3.8c-0.2,0-0.6,0-0.6,0s0-0.5,0-0.6V13h-4.4c-0.2,0-1.6,0-1.6,0
		S11.7,12.1,11.8,11.9L11.8,11.9z"/>
</g>
</svg>
